mc16_13TeV.364903.H7EG_Matchbox_dipole_jetjetNLO_JZ3WithSW.deriv.DAOD_FTAG1.e7482_s3126_r9364_p4060
mc16_13TeV.364904.H7EG_Matchbox_dipole_jetjetNLO_JZ4WithSW.deriv.DAOD_FTAG1.e7482_s3126_r9364_p4060
mc16_13TeV.364905.H7EG_Matchbox_dipole_jetjetNLO_JZ5WithSW.deriv.DAOD_FTAG1.e7482_s3126_r9364_p4060
mc16_13TeV.364906.H7EG_Matchbox_dipole_jetjetNLO_JZ6WithSW.deriv.DAOD_FTAG1.e7482_s3126_r9364_p4060
mc16_13TeV.364907.H7EG_Matchbox_dipole_jetjetNLO_JZ7WithSW.deriv.DAOD_FTAG1.e7482_s3126_r9364_p4060
